Home
…
Author

Date

43d374d

Dennis Wollersheim

2020-09-24

df_diff %>%
  filter( distance == 400)

# A tibble: 10,235 x 9
   mb_code16 distance mb_category_nam… population_cove… intersection_ar…
   <chr>        <dbl> <chr>                       <dbl>            <dbl>
 1 20498820…      400 Parkland                      0              5168.
 2 30206290…      400 Commercial                   27.1            9356.
 3 30396592…      400 Parkland                      0              8520.
 4 10464340…      400 Education                     0              7826.
 5 10829260…      400 Commercial                   11             13078.
 6 11000210…      400 Industrial                   48             17475.
 7 50322633…      400 Parkland                      0              6806.
 8 11204816…      400 Commercial                   23.8            2666.
 9 30358392…      400 Parkland                      0              4976.
10 10751150…      400 Commercial                  127.            25856.
# … with 10,225 more rows, and 4 more variables: category_proportion <dbl>,
#   intersection_area.c_sql <dbl>, diff <dbl>, pct <dbl>
…
